<svg id="Group" xmlns="http://www.w3.org/2000/svg" width="134" height="134" viewBox="0 0 134 134">
  <g id="Oval" fill="none" stroke="#01984e" stroke-linecap="square" stroke-miterlimit="10" stroke-width="7">
    <circle cx="67" cy="67" r="67" stroke="none"/>
    <circle cx="67" cy="67" r="63.5" fill="none"/>
  </g>
  <path id="Path" d="M0,33.977,17.426,55.117,56.7,0" transform="translate(43.324 39)" fill="none" stroke="#01984e" stroke-linecap="round" stroke-miterlimit="10" stroke-width="7"/>
</svg>
